<svg xmlns="http://www.w3.org/2000/svg" width="56.667" height="60.053" viewBox="0 0 56.667 60.053">
  <g id="admin-with-cogwheels" transform="translate(-12.916 0.85)">
    <path id="Path_14776" data-name="Path 14776" d="M93.466,73.928A5.745,5.745,0,0,0,89.9,84.179a12.439,12.439,0,0,1,8.224-7.848A5.749,5.749,0,0,0,93.466,73.928Z" transform="translate(-64.851 -64.838)" fill="#0e8a8a"/>
    <path id="Path_14777" data-name="Path 14777" d="M17.482,18.274a11.953,11.953,0,0,0,.842,2.021l-1.77,1.771a1.219,1.219,0,0,0,0,1.723l3.12,3.121a1.224,1.224,0,0,0,1.724,0l1.768-1.771c.265.14.559.226.834.348,0-.02,0-.041,0-.061a18.154,18.154,0,0,1,.462-4.095A7.7,7.7,0,1,1,35.307,11.08a13.423,13.423,0,0,1,4.35.127A11.62,11.62,0,0,0,38.9,9.4l1.77-1.772a1.213,1.213,0,0,0,0-1.722L37.556,2.788a1.215,1.215,0,0,0-1.72,0L34.06,4.56a11.406,11.406,0,0,0-2.022-.839v-2.5A1.216,1.216,0,0,0,30.822,0H26.409A1.22,1.22,0,0,0,25.19,1.217v2.5a11.528,11.528,0,0,0-2.022.839L21.4,2.79a1.218,1.218,0,0,0-1.722,0L16.554,5.908a1.223,1.223,0,0,0,0,1.723L18.324,9.4a11.654,11.654,0,0,0-.838,2.021h-2.5a1.218,1.218,0,0,0-1.218,1.219v4.413a1.219,1.219,0,0,0,1.218,1.218Z" transform="translate(0)" fill="none" stroke="#000" stroke-width="1.7"/>
    <path id="Path_14778" data-name="Path 14778" d="M290.681,256.571a6.269,6.269,0,1,0-6.318-10.82,22.666,22.666,0,0,1-2.681,6.419A18.85,18.85,0,0,1,290.681,256.571Z" transform="translate(-234.973 -214.684)" fill="#0e8a8a"/>
    <path id="Path_14779" data-name="Path 14779" d="M323.6,179.293a1.315,1.315,0,0,0-1.314-1.315h-2.7a12.468,12.468,0,0,0-.909-2.183l1.911-1.911a1.313,1.313,0,0,0,0-1.859l-3.365-3.366a1.311,1.311,0,0,0-1.858,0l-1.915,1.912a12.277,12.277,0,0,0-2.183-.906v-2.7a1.312,1.312,0,0,0-1.312-1.314H305.2a1.3,1.3,0,0,0-.829.317,17.9,17.9,0,0,1,.62,4.74,22.787,22.787,0,0,1-.241,3.249,8.137,8.137,0,0,1,2.828-.532,8.234,8.234,0,0,1,4.453,15.17,18.806,18.806,0,0,1,3.832,6.391,1.348,1.348,0,0,0,.435.084,1.312,1.312,0,0,0,.93-.385l3.367-3.366a1.322,1.322,0,0,0,0-1.859l-1.915-1.912a12.413,12.413,0,0,0,.909-2.183h2.7a1.317,1.317,0,0,0,1.316-1.315Z" transform="translate(-254.872 -145.283)" fill="none" stroke="#000" stroke-width="1.7"/>
    <path id="Path_14780" data-name="Path 14780" d="M63.615,337.588a15.906,15.906,0,0,0-13.662-10.7,10.441,10.441,0,0,1-7.59,3.609,10.436,10.436,0,0,1-7.588-3.609,15.906,15.906,0,0,0-13.666,10.7l-1.128,3.322a3.131,3.131,0,0,0,2.963,4.136H61.78a3.128,3.128,0,0,0,2.964-4.136Z" transform="translate(-5.304 -286.694)" fill="none" stroke="#000" stroke-width="1.7"/>
    <path id="Path_14781" data-name="Path 14781" d="M120.842,124.087c0,7.45,4.535,15.444,10.126,15.444s10.128-7.994,10.128-15.444C141.1,108.644,120.842,108.613,120.842,124.087Z" transform="translate(-93.91 -98.661)" fill="#0e8a8a" stroke="#000" stroke-width="1.7"/>
  </g>
</svg>
