<svg xmlns="http://www.w3.org/2000/svg" xmlns:xlink="http://www.w3.org/1999/xlink" width="194.408" height="54" viewBox="0 0 194.408 54">
  <defs>
    <clipPath id="clip-path">
      <rect id="Rectangle_6691" data-name="Rectangle 6691" width="40.139" height="29.914" fill="#0e8a8a" stroke="#0e8a8a" stroke-width="1"/>
    </clipPath>
  </defs>
  <g id="Group_394" data-name="Group 394" transform="translate(7421.175 -10212.782)">
    <text id="Teachfy_" data-name="Teachfy " transform="translate(-7377.767 10256.782)" fill="#0e8a8a" font-size="41" font-family="SegoeUI, Segoe UI" letter-spacing="0.015em"><tspan x="0" y="0">Teachfy </tspan></text>
    <g id="Group_17897" data-name="Group 17897" transform="translate(-7421.175 10227.74)">
      <g id="Group_17895" data-name="Group 17895" clip-path="url(#clip-path)">
        <path id="Path_13359" data-name="Path 13359" d="M249.352,83.038a1.526,1.526,0,0,0,1.526,1.526h1.049V86.4h-1.049a3.358,3.358,0,0,1,0-6.716h2.093v1.832h-2.093a1.527,1.527,0,0,0-1.526,1.526" transform="translate(-236.157 -76.017)" fill="#0e8a8a" stroke="#0e8a8a" stroke-width="1"/>
        <rect id="Rectangle_6686" data-name="Rectangle 6686" width="23.608" height="1.831" transform="translate(16.514 3.663)" fill="#0e8a8a" stroke="#0e8a8a" stroke-width="1"/>
        <path id="Path_13360" data-name="Path 13360" d="M113.455,353.827h29.958v1.831H113.455a5.189,5.189,0,0,1,0-10.378h2.527v1.831h-2.559a3.358,3.358,0,0,0,.033,6.716" transform="translate(-103.291 -329.407)" fill="#0e8a8a" stroke="#0e8a8a" stroke-width="1"/>
        <path id="Path_13361" data-name="Path 13361" d="M521.545,265.6v1.854h-.789v-.023H504.628V265.6Z" transform="translate(-481.43 -253.39)" fill="#0e8a8a" stroke="#0e8a8a" stroke-width="1"/>
        <path id="Path_13362" data-name="Path 13362" d="M316.628,345.28v1.832H341a.093.093,0,0,1,.023,0l.02,0,.014,0h.035a.095.095,0,0,0,.082.007l.012,0,.018,0a.088.088,0,0,1,.033.007l.021,0,.006,0h.017l.021,0h.006a.1.1,0,0,1,.1.006h.783V345.28Z" transform="translate(-302.072 -329.407)" fill="#0e8a8a" stroke="#0e8a8a" stroke-width="1"/>
        <path id="Path_13363" data-name="Path 13363" d="M12.883,0H29.905V1.831H12.878a5.189,5.189,0,1,0,0,10.378h8.425v1.831H8.853a7.021,7.021,0,1,0,0,14.041H29.905v1.832H8.853A8.851,8.851,0,0,1,8.19,12.237,7.017,7.017,0,0,1,12.883,0" transform="translate(0 0)" fill="#0e8a8a" stroke="#0e8a8a" stroke-width="1"/>
        <path id="Path_13364" data-name="Path 13364" d="M698.924,610.869v1.809a.161.161,0,0,0,0,.022h-8.194v-1.831Z" transform="translate(-658.975 -582.787)" fill="#0e8a8a" stroke="#0e8a8a" stroke-width="1"/>
        <rect id="Rectangle_6687" data-name="Rectangle 6687" width="8.339" height="1.831" transform="translate(31.754)" fill="#0e8a8a" stroke="#0e8a8a" stroke-width="1"/>
        <path id="Path_13365" data-name="Path 13365" d="M694.711,531.2v5.494h-8.362v-1.831h6.53v-1.832h-6.741V531.2Z" transform="translate(-654.595 -506.78)" fill="#0e8a8a" stroke="#0e8a8a" stroke-width="1"/>
        <rect id="Rectangle_6688" data-name="Rectangle 6688" width="1.849" height="5.494" transform="translate(38.29 0)" fill="#0e8a8a" stroke="#0e8a8a" stroke-width="1"/>
        <rect id="Rectangle_6689" data-name="Rectangle 6689" width="1.849" height="5.494" transform="translate(38.29 12.21)" fill="#0e8a8a" stroke="#0e8a8a" stroke-width="1"/>
        <rect id="Rectangle_6690" data-name="Rectangle 6690" width="1.849" height="5.494" transform="translate(38.267 24.42)" fill="#0e8a8a" stroke="#0e8a8a" stroke-width="1"/>
      </g>
    </g>
  </g>
</svg>
